{
    "name": "Pos",
    "alias": "pos",
    "description": "",
    "keywords": [],
    "active": 1,
    "order": 1,
    "providers": [
        "Modules\\Pos\\Providers\\PosServiceProvider",
        "Modules\\Pos\\Providers\\RouteServiceProvider"
    ],
    "aliases": {},
    "files": [
        
    ],
    "requires": []
}
